<svg width="25" height="25" viewBox="0 0 25 25" fill="none" xmlns="http://www.w3.org/2000/svg">
<g clip-path="url(#clip0_110_731)">
<path d="M19.948 4.13574H4.948C4.53378 4.13574 4.198 4.47153 4.198 4.88574V19.8857C4.198 20.3 4.53378 20.6357 4.948 20.6357H19.948C20.3622 20.6357 20.698 20.3 20.698 19.8857V4.88574C20.698 4.47153 20.3622 4.13574 19.948 4.13574Z" stroke="white" stroke-width="1.5" stroke-linecap="round" stroke-linejoin="round"/>
<path d="M16.948 2.63574V5.63574" stroke="white" stroke-width="1.5" stroke-linecap="round" stroke-linejoin="round"/>
<path d="M7.948 2.63574V5.63574" stroke="white" stroke-width="1.5" stroke-linecap="round" stroke-linejoin="round"/>
<path d="M4.198 8.63574H20.698" stroke="white" stroke-width="1.5" stroke-linecap="round" stroke-linejoin="round"/>
</g>
<defs>
<clipPath id="clip0_110_731">
<rect width="24" height="24" fill="white" transform="translate(0.447998 0.385742)"/>
</clipPath>
</defs>
</svg>
