<svg width="59" height="9" viewBox="0 0 59 9" fill="none" xmlns="http://www.w3.org/2000/svg">
<path d="M58.3536 4.85355C58.5488 4.65829 58.5488 4.34171 58.3536 4.14645L55.1716 0.964466C54.9763 0.769204 54.6597 0.769204 54.4645 0.964466C54.2692 1.15973 54.2692 1.47631 54.4645 1.67157L57.2929 4.5L54.4645 7.32843C54.2692 7.52369 54.2692 7.84027 54.4645 8.03553C54.6597 8.2308 54.9763 8.2308 55.1716 8.03553L58.3536 4.85355ZM0 5H58V4H0V5Z" fill="white"/>
</svg>
